<svg xmlns="http://www.w3.org/2000/svg" width="4" height="29" viewBox="0 0 4 29">
<defs>
    <style>
      .cls-1 {
        fill: #0fd65a;
        fill-rule: evenodd;
      }
    </style>
  </defs>
  <path id="more_ico" class="cls-1" d="M1023,163.031a1.985,1.985,0,1,1-2,1.985A2,2,0,0,1,1023,163.031Zm0-12.531a2,2,0,1,1-2,2A2,2,0,0,1,1023,150.5Zm0-12.5a1.985,1.985,0,1,1-2,1.984A1.995,1.995,0,0,1,1023,138Z" transform="translate(-1021 -138)"/>
</svg>
